-- Merging decision tree log ---
manifest
ADDED from C:\Users\Nick\Code\piano-vr-thing\Piano VR Thing\Builds\Piandroid\src\main\AndroidManifest.xml:2:1-31:12
INJECTED from C:\Users\Nick\Code\piano-vr-thing\Piano VR Thing\Builds\Piandroid\src\main\AndroidManifest.xml:2:1-31:12
INJECTED from C:\Users\Nick\Code\piano-vr-thing\Piano VR Thing\Builds\Piandroid\src\main\AndroidManifest.xml:2:1-31:12
INJECTED from C:\Users\Nick\Code\piano-vr-thing\Piano VR Thing\Builds\Piandroid\src\main\AndroidManifest.xml:2:1-31:12
MERGED from [:gvr:] C:\Users\Nick\.gradle\caches\transforms-1\files-1.1\gvr.aar\a5a5da18aedec0e4fc95393c839165ef\AndroidManifest.xml:2:1-9:12
MERGED from [:unitygvr:] C:\Users\Nick\.gradle\caches\transforms-1\files-1.1\unitygvr.aar\a5c90cd7d87cba4f1053900562d0fea7\AndroidManifest.xml:2:1-11:12
INJECTED from C:\Users\Nick\Code\piano-vr-thing\Piano VR Thing\Builds\Piandroid\src\main\AndroidManifest.xml:2:1-31:12
INJECTED from C:\Users\Nick\Code\piano-vr-thing\Piano VR Thing\Builds\Piandroid\src\main\AndroidManifest.xml:2:1-31:12
INJECTED from C:\Users\Nick\Code\piano-vr-thing\Piano VR Thing\Builds\Piandroid\src\main\AndroidManifest.xml:2:1-31:12
	package
		ADDED from C:\Users\Nick\Code\piano-vr-thing\Piano VR Thing\Builds\Piandroid\src\main\AndroidManifest.xml:2:70-97
		INJECTED from C:\Users\Nick\Code\piano-vr-thing\Piano VR Thing\Builds\Piandroid\src\main\AndroidManifest.xml
		INJECTED from C:\Users\Nick\Code\piano-vr-thing\Piano VR Thing\Builds\Piandroid\src\main\AndroidManifest.xml
	android:versionName
		INJECTED from C:\Users\Nick\Code\piano-vr-thing\Piano VR Thing\Builds\Piandroid\src\main\AndroidManifest.xml
		ADDED from C:\Users\Nick\Code\piano-vr-thing\Piano VR Thing\Builds\Piandroid\src\main\AndroidManifest.xml:2:1-31:12
		INJECTED from C:\Users\Nick\Code\piano-vr-thing\Piano VR Thing\Builds\Piandroid\src\main\AndroidManifest.xml
	xmlns:tools
		ADDED from C:\Users\Nick\Code\piano-vr-thing\Piano VR Thing\Builds\Piandroid\src\main\AndroidManifest.xml:2:98-144
	android:versionCode
		INJECTED from C:\Users\Nick\Code\piano-vr-thing\Piano VR Thing\Builds\Piandroid\src\main\AndroidManifest.xml
		ADDED from C:\Users\Nick\Code\piano-vr-thing\Piano VR Thing\Builds\Piandroid\src\main\AndroidManifest.xml:2:1-31:12
		INJECTED from C:\Users\Nick\Code\piano-vr-thing\Piano VR Thing\Builds\Piandroid\src\main\AndroidManifest.xml
	xmlns:android
		ADDED from C:\Users\Nick\Code\piano-vr-thing\Piano VR Thing\Builds\Piandroid\src\main\AndroidManifest.xml:2:11-69
	android:installLocation
		ADDED from C:\Users\Nick\Code\piano-vr-thing\Piano VR Thing\Builds\Piandroid\src\main\AndroidManifest.xml:2:145-185
supports-screens
ADDED from C:\Users\Nick\Code\piano-vr-thing\Piano VR Thing\Builds\Piandroid\src\main\AndroidManifest.xml:3:3-163
	android:largeScreens
		ADDED from C:\Users\Nick\Code\piano-vr-thing\Piano VR Thing\Builds\Piandroid\src\main\AndroidManifest.xml:3:78-105
	android:smallScreens
		ADDED from C:\Users\Nick\Code\piano-vr-thing\Piano VR Thing\Builds\Piandroid\src\main\AndroidManifest.xml:3:21-48
	android:normalScreens
		ADDED from C:\Users\Nick\Code\piano-vr-thing\Piano VR Thing\Builds\Piandroid\src\main\AndroidManifest.xml:3:49-77
	android:xlargeScreens
		ADDED from C:\Users\Nick\Code\piano-vr-thing\Piano VR Thing\Builds\Piandroid\src\main\AndroidManifest.xml:3:106-134
	android:anyDensity
		ADDED from C:\Users\Nick\Code\piano-vr-thing\Piano VR Thing\Builds\Piandroid\src\main\AndroidManifest.xml:3:135-160
application
ADDED from C:\Users\Nick\Code\piano-vr-thing\Piano VR Thing\Builds\Piandroid\src\main\AndroidManifest.xml:4:3-20:17
	android:label
		ADDED from C:\Users\Nick\Code\piano-vr-thing\Piano VR Thing\Builds\Piandroid\src\main\AndroidManifest.xml:4:48-80
	android:icon
		ADDED from C:\Users\Nick\Code\piano-vr-thing\Piano VR Thing\Builds\Piandroid\src\main\AndroidManifest.xml:4:16-47
	android:banner
		ADDED from C:\Users\Nick\Code\piano-vr-thing\Piano VR Thing\Builds\Piandroid\src\main\AndroidManifest.xml:4:103-140
	android:theme
		ADDED from C:\Users\Nick\Code\piano-vr-thing\Piano VR Thing\Builds\Piandroid\src\main\AndroidManifest.xml:4:141-179
	android:isGame
		ADDED from C:\Users\Nick\Code\piano-vr-thing\Piano VR Thing\Builds\Piandroid\src\main\AndroidManifest.xml:4:81-102
activity#com.cfc.piandroid.UnityPlayerActivity
ADDED from C:\Users\Nick\Code\piano-vr-thing\Piano VR Thing\Builds\Piandroid\src\main\AndroidManifest.xml:5:5-15:16
	android:screenOrientation
		ADDED from C:\Users\Nick\Code\piano-vr-thing\Piano VR Thing\Builds\Piandroid\src\main\AndroidManifest.xml:5:48-86
	android:label
		ADDED from C:\Users\Nick\Code\piano-vr-thing\Piano VR Thing\Builds\Piandroid\src\main\AndroidManifest.xml:5:15-47
	android:enableVrMode
		ADDED from C:\Users\Nick\Code\piano-vr-thing\Piano VR Thing\Builds\Piandroid\src\main\AndroidManifest.xml:5:337-389
	android:launchMode
		ADDED from C:\Users\Nick\Code\piano-vr-thing\Piano VR Thing\Builds\Piandroid\src\main\AndroidManifest.xml:5:87-118
	android:hardwareAccelerated
		ADDED from C:\Users\Nick\Code\piano-vr-thing\Piano VR Thing\Builds\Piandroid\src\main\AndroidManifest.xml:5:301-336
	android:resizeableActivity
		ADDED from C:\Users\Nick\Code\piano-vr-thing\Piano VR Thing\Builds\Piandroid\src\main\AndroidManifest.xml:5:390-424
	android:configChanges
		ADDED from C:\Users\Nick\Code\piano-vr-thing\Piano VR Thing\Builds\Piandroid\src\main\AndroidManifest.xml:5:119-300
	android:name
		ADDED from C:\Users\Nick\Code\piano-vr-thing\Piano VR Thing\Builds\Piandroid\src\main\AndroidManifest.xml:5:425-477
intent-filter#android.intent.action.MAIN+android.intent.category.LAUNCHER+android.intent.category.LEANBACK_LAUNCHER+com.google.intent.category.DAYDREAM
ADDED from C:\Users\Nick\Code\piano-vr-thing\Piano VR Thing\Builds\Piandroid\src\main\AndroidManifest.xml:6:7-11:23
action#android.intent.action.MAIN
ADDED from C:\Users\Nick\Code\piano-vr-thing\Piano VR Thing\Builds\Piandroid\src\main\AndroidManifest.xml:7:9-61
	android:name
		ADDED from C:\Users\Nick\Code\piano-vr-thing\Piano VR Thing\Builds\Piandroid\src\main\AndroidManifest.xml:7:17-58
category#android.intent.category.LAUNCHER
ADDED from C:\Users\Nick\Code\piano-vr-thing\Piano VR Thing\Builds\Piandroid\src\main\AndroidManifest.xml:8:9-69
	android:name
		ADDED from C:\Users\Nick\Code\piano-vr-thing\Piano VR Thing\Builds\Piandroid\src\main\AndroidManifest.xml:8:19-66
category#android.intent.category.LEANBACK_LAUNCHER
ADDED from C:\Users\Nick\Code\piano-vr-thing\Piano VR Thing\Builds\Piandroid\src\main\AndroidManifest.xml:9:9-78
	android:name
		ADDED from C:\Users\Nick\Code\piano-vr-thing\Piano VR Thing\Builds\Piandroid\src\main\AndroidManifest.xml:9:19-75
category#com.google.intent.category.DAYDREAM
ADDED from C:\Users\Nick\Code\piano-vr-thing\Piano VR Thing\Builds\Piandroid\src\main\AndroidManifest.xml:10:9-72
	android:name
		ADDED from C:\Users\Nick\Code\piano-vr-thing\Piano VR Thing\Builds\Piandroid\src\main\AndroidManifest.xml:10:19-69
meta-data#unityplayer.UnityActivity
ADDED from C:\Users\Nick\Code\piano-vr-thing\Piano VR Thing\Builds\Piandroid\src\main\AndroidManifest.xml:12:7-82
	android:value
		ADDED from C:\Users\Nick\Code\piano-vr-thing\Piano VR Thing\Builds\Piandroid\src\main\AndroidManifest.xml:12:59-79
	android:name
		ADDED from C:\Users\Nick\Code\piano-vr-thing\Piano VR Thing\Builds\Piandroid\src\main\AndroidManifest.xml:12:18-58
meta-data#com.google.android.vr.icon
ADDED from C:\Users\Nick\Code\piano-vr-thing\Piano VR Thing\Builds\Piandroid\src\main\AndroidManifest.xml:13:7-105
	android:resource
		ADDED from C:\Users\Nick\Code\piano-vr-thing\Piano VR Thing\Builds\Piandroid\src\main\AndroidManifest.xml:13:60-102
	android:name
		ADDED from C:\Users\Nick\Code\piano-vr-thing\Piano VR Thing\Builds\Piandroid\src\main\AndroidManifest.xml:13:18-59
meta-data#com.google.android.vr.icon_background
ADDED from C:\Users\Nick\Code\piano-vr-thing\Piano VR Thing\Builds\Piandroid\src\main\AndroidManifest.xml:14:7-115
	android:resource
		ADDED from C:\Users\Nick\Code\piano-vr-thing\Piano VR Thing\Builds\Piandroid\src\main\AndroidManifest.xml:14:71-112
	android:name
		ADDED from C:\Users\Nick\Code\piano-vr-thing\Piano VR Thing\Builds\Piandroid\src\main\AndroidManifest.xml:14:18-70
meta-data#unityplayer.SkipPermissionsDialog
ADDED from C:\Users\Nick\Code\piano-vr-thing\Piano VR Thing\Builds\Piandroid\src\main\AndroidManifest.xml:16:5-88
	android:value
		ADDED from C:\Users\Nick\Code\piano-vr-thing\Piano VR Thing\Builds\Piandroid\src\main\AndroidManifest.xml:16:65-85
	android:name
		ADDED from C:\Users\Nick\Code\piano-vr-thing\Piano VR Thing\Builds\Piandroid\src\main\AndroidManifest.xml:16:16-64
meta-data#unity.build-id
ADDED from C:\Users\Nick\Code\piano-vr-thing\Piano VR Thing\Builds\Piandroid\src\main\AndroidManifest.xml:17:5-101
	android:value
		ADDED from C:\Users\Nick\Code\piano-vr-thing\Piano VR Thing\Builds\Piandroid\src\main\AndroidManifest.xml:17:46-98
	android:name
		ADDED from C:\Users\Nick\Code\piano-vr-thing\Piano VR Thing\Builds\Piandroid\src\main\AndroidManifest.xml:17:16-45
meta-data#unity.splash-mode
ADDED from C:\Users\Nick\Code\piano-vr-thing\Piano VR Thing\Builds\Piandroid\src\main\AndroidManifest.xml:18:5-69
	android:value
		ADDED from C:\Users\Nick\Code\piano-vr-thing\Piano VR Thing\Builds\Piandroid\src\main\AndroidManifest.xml:18:49-66
	android:name
		ADDED from C:\Users\Nick\Code\piano-vr-thing\Piano VR Thing\Builds\Piandroid\src\main\AndroidManifest.xml:18:16-48
meta-data#unity.splash-enable
ADDED from C:\Users\Nick\Code\piano-vr-thing\Piano VR Thing\Builds\Piandroid\src\main\AndroidManifest.xml:19:5-75
	android:value
		ADDED from C:\Users\Nick\Code\piano-vr-thing\Piano VR Thing\Builds\Piandroid\src\main\AndroidManifest.xml:19:51-72
	android:name
		ADDED from C:\Users\Nick\Code\piano-vr-thing\Piano VR Thing\Builds\Piandroid\src\main\AndroidManifest.xml:19:16-50
uses-feature#0x00020000
ADDED from C:\Users\Nick\Code\piano-vr-thing\Piano VR Thing\Builds\Piandroid\src\main\AndroidManifest.xml:21:3-52
	android:glEsVersion
		ADDED from C:\Users\Nick\Code\piano-vr-thing\Piano VR Thing\Builds\Piandroid\src\main\AndroidManifest.xml:21:17-49
uses-feature#android.hardware.vr.headtracking
ADDED from C:\Users\Nick\Code\piano-vr-thing\Piano VR Thing\Builds\Piandroid\src\main\AndroidManifest.xml:22:3-112
	android:version
		ADDED from C:\Users\Nick\Code\piano-vr-thing\Piano VR Thing\Builds\Piandroid\src\main\AndroidManifest.xml:22:90-109
	android:required
		ADDED from C:\Users\Nick\Code\piano-vr-thing\Piano VR Thing\Builds\Piandroid\src\main\AndroidManifest.xml:22:65-89
	android:name
		ADDED from C:\Users\Nick\Code\piano-vr-thing\Piano VR Thing\Builds\Piandroid\src\main\AndroidManifest.xml:22:17-64
uses-feature#android.software.vr.mode
ADDED from C:\Users\Nick\Code\piano-vr-thing\Piano VR Thing\Builds\Piandroid\src\main\AndroidManifest.xml:23:3-59
	android:name
		ADDED from C:\Users\Nick\Code\piano-vr-thing\Piano VR Thing\Builds\Piandroid\src\main\AndroidManifest.xml:23:17-56
uses-feature#android.hardware.vr.high_performance
ADDED from C:\Users\Nick\Code\piano-vr-thing\Piano VR Thing\Builds\Piandroid\src\main\AndroidManifest.xml:24:3-71
	android:name
		ADDED from C:\Users\Nick\Code\piano-vr-thing\Piano VR Thing\Builds\Piandroid\src\main\AndroidManifest.xml:24:17-68
uses-permission#android.permission.INTERNET
ADDED from C:\Users\Nick\Code\piano-vr-thing\Piano VR Thing\Builds\Piandroid\src\main\AndroidManifest.xml:25:3-65
	android:name
		ADDED from C:\Users\Nick\Code\piano-vr-thing\Piano VR Thing\Builds\Piandroid\src\main\AndroidManifest.xml:25:20-62
uses-permission#android.permission.WRITE_EXTERNAL_STORAGE
ADDED from C:\Users\Nick\Code\piano-vr-thing\Piano VR Thing\Builds\Piandroid\src\main\AndroidManifest.xml:26:3-106
	android:maxSdkVersion
		ADDED from C:\Users\Nick\Code\piano-vr-thing\Piano VR Thing\Builds\Piandroid\src\main\AndroidManifest.xml:26:77-103
	android:name
		ADDED from C:\Users\Nick\Code\piano-vr-thing\Piano VR Thing\Builds\Piandroid\src\main\AndroidManifest.xml:26:20-76
uses-permission#android.permission.READ_EXTERNAL_STORAGE
ADDED from C:\Users\Nick\Code\piano-vr-thing\Piano VR Thing\Builds\Piandroid\src\main\AndroidManifest.xml:27:3-105
	android:maxSdkVersion
		ADDED from C:\Users\Nick\Code\piano-vr-thing\Piano VR Thing\Builds\Piandroid\src\main\AndroidManifest.xml:27:76-102
	android:name
		ADDED from C:\Users\Nick\Code\piano-vr-thing\Piano VR Thing\Builds\Piandroid\src\main\AndroidManifest.xml:27:20-75
uses-feature#android.hardware.touchscreen
ADDED from C:\Users\Nick\Code\piano-vr-thing\Piano VR Thing\Builds\Piandroid\src\main\AndroidManifest.xml:28:3-88
	android:required
		ADDED from C:\Users\Nick\Code\piano-vr-thing\Piano VR Thing\Builds\Piandroid\src\main\AndroidManifest.xml:28:61-85
	android:name
		ADDED from C:\Users\Nick\Code\piano-vr-thing\Piano VR Thing\Builds\Piandroid\src\main\AndroidManifest.xml:28:17-60
uses-feature#android.hardware.touchscreen.multitouch
ADDED from C:\Users\Nick\Code\piano-vr-thing\Piano VR Thing\Builds\Piandroid\src\main\AndroidManifest.xml:29:3-99
	android:required
		ADDED from C:\Users\Nick\Code\piano-vr-thing\Piano VR Thing\Builds\Piandroid\src\main\AndroidManifest.xml:29:72-96
	android:name
		ADDED from C:\Users\Nick\Code\piano-vr-thing\Piano VR Thing\Builds\Piandroid\src\main\AndroidManifest.xml:29:17-71
uses-feature#android.hardware.touchscreen.multitouch.distinct
ADDED from C:\Users\Nick\Code\piano-vr-thing\Piano VR Thing\Builds\Piandroid\src\main\AndroidManifest.xml:30:3-108
	android:required
		ADDED from C:\Users\Nick\Code\piano-vr-thing\Piano VR Thing\Builds\Piandroid\src\main\AndroidManifest.xml:30:81-105
	android:name
		ADDED from C:\Users\Nick\Code\piano-vr-thing\Piano VR Thing\Builds\Piandroid\src\main\AndroidManifest.xml:30:17-80
uses-sdk
INJECTED from C:\Users\Nick\Code\piano-vr-thing\Piano VR Thing\Builds\Piandroid\src\main\AndroidManifest.xml reason: use-sdk injection requested
INJECTED from C:\Users\Nick\Code\piano-vr-thing\Piano VR Thing\Builds\Piandroid\src\main\AndroidManifest.xml
INJECTED from C:\Users\Nick\Code\piano-vr-thing\Piano VR Thing\Builds\Piandroid\src\main\AndroidManifest.xml
MERGED from [:gvr:] C:\Users\Nick\.gradle\caches\transforms-1\files-1.1\gvr.aar\a5a5da18aedec0e4fc95393c839165ef\AndroidManifest.xml:5:5-7:41
MERGED from [:gvr:] C:\Users\Nick\.gradle\caches\transforms-1\files-1.1\gvr.aar\a5a5da18aedec0e4fc95393c839165ef\AndroidManifest.xml:5:5-7:41
MERGED from [:unitygvr:] C:\Users\Nick\.gradle\caches\transforms-1\files-1.1\unitygvr.aar\a5c90cd7d87cba4f1053900562d0fea7\AndroidManifest.xml:7:5-9:41
MERGED from [:unitygvr:] C:\Users\Nick\.gradle\caches\transforms-1\files-1.1\unitygvr.aar\a5c90cd7d87cba4f1053900562d0fea7\AndroidManifest.xml:7:5-9:41
INJECTED from C:\Users\Nick\Code\piano-vr-thing\Piano VR Thing\Builds\Piandroid\src\main\AndroidManifest.xml
INJECTED from C:\Users\Nick\Code\piano-vr-thing\Piano VR Thing\Builds\Piandroid\src\main\AndroidManifest.xml
	android:targetSdkVersion
		INJECTED from C:\Users\Nick\Code\piano-vr-thing\Piano VR Thing\Builds\Piandroid\src\main\AndroidManifest.xml
		ADDED from C:\Users\Nick\Code\piano-vr-thing\Piano VR Thing\Builds\Piandroid\src\main\AndroidManifest.xml
		INJECTED from C:\Users\Nick\Code\piano-vr-thing\Piano VR Thing\Builds\Piandroid\src\main\AndroidManifest.xml
	android:minSdkVersion
		INJECTED from C:\Users\Nick\Code\piano-vr-thing\Piano VR Thing\Builds\Piandroid\src\main\AndroidManifest.xml
		ADDED from C:\Users\Nick\Code\piano-vr-thing\Piano VR Thing\Builds\Piandroid\src\main\AndroidManifest.xml
		INJECTED from C:\Users\Nick\Code\piano-vr-thing\Piano VR Thing\Builds\Piandroid\src\main\AndroidManifest.xml
